{
  "project_info": {
    "project_number": "456040228876",
    "project_id": "testbuildappcenter",
    "storage_bucket": "testbuildappcenter.appspot.com"
  },
  "client": [
    {
      "client_info": {
        "mobilesdk_app_id": "1:456040228876:android:122e50f0a4153ca3b3e629",
        "android_client_info": {
          "package_name": "com.hiteam.testgit"
        }
      },
      "oauth_client": [
        {
          "client_id": "456040228876-3t1i55stdpfk3hdillolri43nj2m8a5u.apps.googleusercontent.com",
          "client_type": 3
        }
      ],
      "api_key": [
        {
          "current_key": "AIzaSyClIFfMSCaEQkha1RioFe1uXkgjttLLhlE"
        }
      ],
      "services": {
        "appinvite_service": {
          "other_platform_oauth_client": [
            {
              "client_id": "456040228876-3t1i55stdpfk3hdillolri43nj2m8a5u.apps.googleusercontent.com",
              "client_type": 3
            }
          ]
        }
      }
    }
  ],
  "configuration_version": "1"
}